…
##3. Mean and median number of steps taken each day

```r
mean_meadian <- activity %>%
    group_by(date) %>%
    summarise(mean = mean(steps, na.rm=TRUE), median=median(steps, na.rm=TRUE))
mean_meadian
```

```
## # A tibble: 61 x 3
##          date     mean median
##        <fctr>    <dbl>  <dbl>
## 1  2012-10-01      NaN     NA
## 2  2012-10-02  0.43750      0
## 3  2012-10-03 39.41667      0
## 4  2012-10-04 42.06944      0
## 5  2012-10-05 46.15972      0
## 6  2012-10-06 53.54167      0
## 7  2012-10-07 38.24653      0
## 8  2012-10-08      NaN     NA
## 9  2012-10-09 44.48264      0
## 10 2012-10-10 34.37500      0
## # ... with 51 more rows
```
…
